<?xml version="1.0" encoding="utf-8"?>
<!-- Generator: Adobe Illustrator 25.0.1, SVG Export Plug-In . SVG Version: 6.00 Build 0)  -->
<svg version="1.1" id="Line_stroke_cut_Ex" xmlns="http://www.w3.org/2000/svg" xmlns:xlink="http://www.w3.org/1999/xlink" x="0px"
	 y="0px" viewBox="0 0 512 512" style="enable-background:new 0 0 512 512;" xml:space="preserve">
<style type="text/css">
	.st0{fill:url(#SVGID_1_);}
	.st1{fill:url(#SVGID_2_);}
	.st2{fill:url(#SVGID_3_);}
	.st3{fill:url(#SVGID_4_);}
	.st4{fill:url(#SVGID_5_);}
	.st5{fill:url(#SVGID_6_);}
	.st6{fill:url(#SVGID_7_);}
	.st7{fill:url(#SVGID_8_);}
	.st8{fill:url(#SVGID_9_);}
	.st9{fill:url(#SVGID_10_);}
	.st10{fill:url(#SVGID_11_);}
	.st11{fill:url(#SVGID_12_);}
	.st12{fill:url(#SVGID_13_);}
	.st13{fill:url(#SVGID_14_);}
	.st14{fill:url(#SVGID_15_);}
	.st15{fill:url(#SVGID_16_);}
	.st16{fill:url(#SVGID_17_);}
	.st17{fill:url(#SVGID_18_);}
	.st18{fill:url(#SVGID_19_);}
</style>
<g>
	<linearGradient id="SVGID_1_" gradientUnits="userSpaceOnUse" x1="392" y1="315.328" x2="483.62" y2="315.328">
		<stop  offset="0" style="stop-color:#273C74"/>
		<stop  offset="1" style="stop-color:#233871"/>
	</linearGradient>
	<path class="st0" d="M409,480h-17v16h23.8c3.9,0,7.2-2.8,7.9-6.7l60-352l-15.8-2.7L409,480z"/>
	<linearGradient id="SVGID_2_" gradientUnits="userSpaceOnUse" x1="390.611" y1="80.2705" x2="496.0014" y2="80.2705">
		<stop  offset="0" style="stop-color:#273C74"/>
		<stop  offset="1" style="stop-color:#233871"/>
	</linearGradient>
	<path class="st1" d="M489.4,56.1l-96-16.9L390.6,55l88.2,15.5l-8.2,48.2l15.8,2.7l9.5-56C496.6,61,493.7,56.9,489.4,56.1
		L489.4,56.1z"/>
	<linearGradient id="SVGID_3_" gradientUnits="userSpaceOnUse" x1="16" y1="256" x2="376" y2="256">
		<stop  offset="0" style="stop-color:#273C74"/>
		<stop  offset="1" style="stop-color:#233871"/>
	</linearGradient>
	<path class="st2" d="M368,16H24c-4.4,0-8,3.6-8,8v328h16V32h328v448H32V368H16v120c0,4.4,3.6,8,8,8h344c4.4,0,8-3.6,8-8V24
		C376,19.6,372.4,16,368,16z"/>
	<linearGradient id="SVGID_4_" gradientUnits="userSpaceOnUse" x1="82.343" y1="285.3965" x2="166.074" y2="285.3965">
		<stop  offset="0" style="stop-color:#273C74"/>
		<stop  offset="1" style="stop-color:#233871"/>
	</linearGradient>
	<path class="st3" d="M93.7,282.3l-11.3,11.3l24,24c1.5,1.5,3.5,2.3,5.7,2.3c0.1,0,0.2,0,0.3,0c2.2-0.1,4.3-1.1,5.8-2.8l48-56
		l-12.1-10.4l-42.4,49.4L93.7,282.3z"/>
	<linearGradient id="SVGID_5_" gradientUnits="userSpaceOnUse" x1="56" y1="296" x2="152" y2="296">
		<stop  offset="0" style="stop-color:#273C74"/>
		<stop  offset="1" style="stop-color:#233871"/>
	</linearGradient>
	<path class="st4" d="M56,316c0,15.5,12.5,28,28,28h40c15.5,0,28-12.5,28-28v-4h-16v4c0,6.6-5.4,12-12,12H84c-6.6,0-12-5.4-12-12
		v-40c0-6.6,5.4-12,12-12h36v-16H84c-15.5,0-28,12.5-28,28V316z"/>
	<linearGradient id="SVGID_6_" gradientUnits="userSpaceOnUse" x1="82.343" y1="405.3965" x2="166.074" y2="405.3965">
		<stop  offset="0" style="stop-color:#273C74"/>
		<stop  offset="1" style="stop-color:#233871"/>
	</linearGradient>
	<path class="st5" d="M93.7,402.3l-11.3,11.3l24,24c1.5,1.5,3.5,2.3,5.7,2.3c0.1,0,0.2,0,0.3,0c2.2-0.1,4.3-1.1,5.8-2.8l48-56
		l-12.1-10.4l-42.4,49.4L93.7,402.3z"/>
	<linearGradient id="SVGID_7_" gradientUnits="userSpaceOnUse" x1="56" y1="416" x2="152" y2="416">
		<stop  offset="0" style="stop-color:#273C74"/>
		<stop  offset="1" style="stop-color:#233871"/>
	</linearGradient>
	<path class="st6" d="M56,436c0,15.5,12.5,28,28,28h40c15.5,0,28-12.5,28-28v-4h-16v4c0,6.6-5.4,12-12,12H84c-6.6,0-12-5.4-12-12
		v-40c0-6.6,5.4-12,12-12h36v-16H84c-15.5,0-28,12.5-28,28V436z"/>
	<linearGradient id="SVGID_8_" gradientUnits="userSpaceOnUse" x1="184" y1="376" x2="304" y2="376">
		<stop  offset="0" style="stop-color:#273C74"/>
		<stop  offset="1" style="stop-color:#233871"/>
	</linearGradient>
	<path class="st7" d="M184,368h120v16H184V368z"/>
	<linearGradient id="SVGID_9_" gradientUnits="userSpaceOnUse" x1="184" y1="416" x2="224" y2="416">
		<stop  offset="0" style="stop-color:#273C74"/>
		<stop  offset="1" style="stop-color:#233871"/>
	</linearGradient>
	<path class="st8" d="M184,408h40v16h-40V408z"/>
	<linearGradient id="SVGID_10_" gradientUnits="userSpaceOnUse" x1="240" y1="416" x2="304" y2="416">
		<stop  offset="0" style="stop-color:#273C74"/>
		<stop  offset="1" style="stop-color:#233871"/>
	</linearGradient>
	<path class="st9" d="M240,408h64v16h-64V408z"/>
	<linearGradient id="SVGID_11_" gradientUnits="userSpaceOnUse" x1="184" y1="256" x2="304" y2="256">
		<stop  offset="0" style="stop-color:#273C74"/>
		<stop  offset="1" style="stop-color:#233871"/>
	</linearGradient>
	<path class="st10" d="M184,248h120v16H184V248z"/>
	<linearGradient id="SVGID_12_" gradientUnits="userSpaceOnUse" x1="184" y1="296" x2="224" y2="296">
		<stop  offset="0" style="stop-color:#273C74"/>
		<stop  offset="1" style="stop-color:#233871"/>
	</linearGradient>
	<path class="st11" d="M184,288h40v16h-40V288z"/>
	<linearGradient id="SVGID_13_" gradientUnits="userSpaceOnUse" x1="240" y1="296" x2="304" y2="296">
		<stop  offset="0" style="stop-color:#273C74"/>
		<stop  offset="1" style="stop-color:#233871"/>
	</linearGradient>
	<path class="st12" d="M240,288h64v16h-64V288z"/>
	<linearGradient id="SVGID_14_" gradientUnits="userSpaceOnUse" x1="120.0001" y1="136.0314" x2="279.7985" y2="136.0314">
		<stop  offset="0" style="stop-color:#273C74"/>
		<stop  offset="1" style="stop-color:#233871"/>
	</linearGradient>
	<path class="st13" d="M275.1,80.8l-71.9-32.1c-2.1-0.9-4.4-0.9-6.5,0l-71.9,32.1c-3.3,1.5-5.2,5-4.6,8.6l6,38.1c0,0.1,0,0.1,0,0.2
		c6.1,33,24.6,62.4,51.7,82.1l17.4,12.8c2.8,2.1,6.6,2.1,9.4,0l16.6-12.1c27.5-19.7,46.2-49.3,52.3-82.6c0-0.1,0-0.1,0-0.2l6.1-38.4
		C280.3,85.7,278.4,82.2,275.1,80.8L275.1,80.8z M257.9,125.1c-5.4,29.2-21.9,55.1-46,72.4l-11.9,8.6l-12.7-9.4
		c-23.8-17.3-40-43.1-45.4-72l-5-31.9l63-28.1l63,28.1L257.9,125.1z"/>
	<linearGradient id="SVGID_15_" gradientUnits="userSpaceOnUse" x1="162.153" y1="129.2279" x2="245.466" y2="129.2279">
		<stop  offset="0" style="stop-color:#273C74"/>
		<stop  offset="1" style="stop-color:#233871"/>
	</linearGradient>
	<path class="st14" d="M173.5,122.4l-11.3,11.3l24,24c3.1,3.1,8.2,3.1,11.3,0l48-48l-11.3-11.3l-42.3,42.3L173.5,122.4z"/>
	<linearGradient id="SVGID_16_" gradientUnits="userSpaceOnUse" x1="56" y1="56" x2="104" y2="56">
		<stop  offset="0" style="stop-color:#273C74"/>
		<stop  offset="1" style="stop-color:#233871"/>
	</linearGradient>
	<path class="st15" d="M56,48h48v16H56V48z"/>
	<linearGradient id="SVGID_17_" gradientUnits="userSpaceOnUse" x1="56" y1="88" x2="88" y2="88">
		<stop  offset="0" style="stop-color:#273C74"/>
		<stop  offset="1" style="stop-color:#233871"/>
	</linearGradient>
	<path class="st16" d="M56,80h32v16H56V80z"/>
	<linearGradient id="SVGID_18_" gradientUnits="userSpaceOnUse" x1="296" y1="56" x2="312" y2="56">
		<stop  offset="0" style="stop-color:#273C74"/>
		<stop  offset="1" style="stop-color:#233871"/>
	</linearGradient>
	<path class="st17" d="M296,48h16v16h-16V48z"/>
	<linearGradient id="SVGID_19_" gradientUnits="userSpaceOnUse" x1="328" y1="56" x2="344" y2="56">
		<stop  offset="0" style="stop-color:#273C74"/>
		<stop  offset="1" style="stop-color:#233871"/>
	</linearGradient>
	<path class="st18" d="M328,48h16v16h-16V48z"/>
</g>
</svg>
